[
  {
    "movie_id": 3315342,
    "title": "Logan (2017)",
    "genres": "Action|Drama|Sci-Fi"
  },
  {
    "movie_id": 3731562,
    "title": "Kong: Skull Island (2017)",
    "genres": "Action|Adventure|Fantasy"
  },
  {
    "movie_id": 5052448,
    "title": "Get Out (2017)",
    "genres": "Horror"
  },
  {
    "movie_id": 2771200,
    "title": "Beauty and the Beast (2017)",
    "genres": "Family|Fantasy|Musical"
  },
  {
    "movie_id": 4630562,
    "title": "The Fate of the Furious (2017)",
    "genres": "Action|Crime|Thriller"
  },
  {
    "movie_id": 4425200,
    "title": "John Wick: Chapter 2 (2017)",
    "genres": "Action|Crime|Thriller"
  },
  {
    "movie_id": 5442430,
    "title": "Life (2017)",
    "genres": "Horror|Sci-Fi|Thriller"
  },
  {
    "movie_id": 1219827,
    "title": "Ghost in the Shell (2017)",
    "genres": "Action|Crime|Drama"
  },
  {
    "movie_id": 3896198,
    "title": "Guardians of the Galaxy Vol. 2 (2017)",
    "genres": "Action|Adventure|Sci-Fi"
  },
  {
    "movie_id": 4116284,
    "title": "The LEGO Batman Movie (2017)",
    "genres": "Animation|Action|Adventure"
  },
  {
    "movie_id": 1293847,
    "title": "xXx: Return of Xander Cage (2017)",
    "genres": "Action|Adventure|Thriller"
  },
  {
    "movie_id": 2763304,
    "title": "T2 Trainspotting (2017)",
    "genres": "Drama"
  },
  {
    "movie_id": 3717490,
    "title": "Power Rangers (2017)",
    "genres": "Action|Adventure|Sci-Fi"
  },
  {
    "movie_id": 3874544,
    "title": "The Boss Baby (2017)",
    "genres": "Animation|Comedy|Family"
  },
  {
    "movie_id": 4465564,
    "title": "Fifty Shades Darker (2017)",
    "genres": "Drama|Romance"
  },
  {
    "movie_id": 2568862,
    "title": "Going in Style (2017)",
    "genres": "Comedy|Crime"
  },
  {
    "movie_id": 498381,
    "title": "Rings (2017)",
    "genres": "Drama|Horror"
  },
  {
    "movie_id": 2072233,
    "title": "Sleepless (2017)",
    "genres": "Action|Crime|Thriller"
  },
  {
    "movie_id": 3171832,
    "title": "iBoy (2017)",
    "genres": "Action|Crime|Sci-Fi"
  },
  {
    "movie_id": 3405236,
    "title": "Raees (2017)",
    "genres": "Action|Crime|Thriller"
  },
  {
    "movie_id": 4287320,
    "title": "The Circle (2017)",
    "genres": "Drama|Sci-Fi|Thriller"
  },
  {
    "movie_id": 3401882,
    "title": "Fist Fight (2017)",
    "genres": "Comedy"
  },
  {
    "movie_id": 5710514,
    "title": "I Don't Feel at Home in This World Anymore (2017)",
    "genres": "Crime|Drama|Thriller"
  },
  {
    "movie_id": 3922818,
    "title": "The Space Between Us (2017)",
    "genres": "Adventure|Drama|Romance"
  },
  {
    "movie_id": 5155780,
    "title": "The Discovery (2017)",
    "genres": "Drama|Mystery|Romance"
  },
  {
    "movie_id": 4581576,
    "title": "Aftermath (2017)",
    "genres": "Drama|Thriller"
  },
  {
    "movie_id": 1753383,
    "title": "A Dog's Purpose (2017)",
    "genres": "Adventure|Comedy|Drama"
  },
  {
    "movie_id": 5460276,
    "title": "Kaabil (2017)",
    "genres": "Action"
  },
  {
    "movie_id": 2582576,
    "title": "Sand Castle (2017)",
    "genres": "Drama|War"
  },
  {
    "movie_id": 2398241,
    "title": "Smurfs: The Lost Village (2017)",
    "genres": "Animation|Adventure|Comedy"
  },
  {
    "movie_id": 493405,
    "title": "CHIPS (2017)",
    "genres": "Action|Comedy|Crime"
  },
  {
    "movie_id": 4030600,
    "title": "The Bye Bye Man (2017)",
    "genres": "Horror|Thriller"
  },
  {
    "movie_id": 4217392,
    "title": "Kung-Fu Yoga (2017)",
    "genres": "Action|Adventure|Comedy"
  },
  {
    "movie_id": 1691916,
    "title": "Before I Fall (2017)",
    "genres": "Drama|Mystery"
  },
  {
    "movie_id": 5982852,
    "title": "Jolly LLB 2 (2017)",
    "genres": "Comedy|Drama"
  },
  {
    "movie_id": 4849438,
    "title": "Baahubali 2: The Conclusion (2017)",
    "genres": "Action|Adventure|Drama"
  },
  {
    "movie_id": 5607714,
    "title": "A Teströl és Lélekröl (2017)",
    "genres": "Drama"
  },
  {
    "movie_id": 4481414,
    "title": "Gifted (2017)",
    "genres": "Drama"
  },
  {
    "movie_id": 1730768,
    "title": "The Zookeeper's Wife (2017)",
    "genres": "Biography|Drama|History"
  },
  {
    "movie_id": 3462710,
    "title": "Unforgettable (2017)",
    "genres": "Thriller"
  }
]